<svg xmlns="http://www.w3.org/2000/svg" width="15.048" height="15.048" viewBox="0 0 15.048 15.048">
  <path id="Path_2092" data-name="Path 2092" d="M22.746,17.729H18.214V13.394a.394.394,0,1,0-.788,0v4.335H12.894a.394.394,0,1,0,0,.788h4.532v4.729a.394.394,0,1,0,.788,0V18.517h4.532a.394.394,0,1,0,0-.788Z" transform="translate(7.877 -18.031) rotate(45)" fill="#5a4e63"/>
</svg>
