<svg id="edit" xmlns="http://www.w3.org/2000/svg" width="20.609" height="20.505" viewBox="0 0 20.609 20.505">
  <path id="Path_2201" data-name="Path 2201" d="M19.021,50.043a.513.513,0,0,0-.513.513v4.557a1.541,1.541,0,0,1-1.54,1.54H2.566a1.541,1.541,0,0,1-1.54-1.54V41.738a1.542,1.542,0,0,1,1.54-1.54H7.124a.513.513,0,0,0,0-1.027H2.566A2.569,2.569,0,0,0,0,41.738V55.114A2.569,2.569,0,0,0,2.566,57.68h14.4a2.569,2.569,0,0,0,2.566-2.566V50.556a.513.513,0,0,0-.513-.513Zm0,0" transform="translate(0 -37.175)" fill="#504658"/>
  <path id="Path_2202" data-name="Path 2202" d="M121.968.937a2.31,2.31,0,0,0-3.266,0l-9.157,9.157a.513.513,0,0,0-.132.226l-1.2,4.347a.513.513,0,0,0,.632.632l4.347-1.2a.513.513,0,0,0,.226-.132l9.157-9.157a2.312,2.312,0,0,0,0-3.266Zm-11.305,9.491,7.494-7.495,2.417,2.417-7.495,7.495Zm-.483.969,1.931,1.931-2.671.74ZM121.845,4.08l-.544.544-2.417-2.417.545-.544a1.283,1.283,0,0,1,1.814,0l.6.6A1.285,1.285,0,0,1,121.845,4.08Zm0,0" transform="translate(-102.637 -0.261)" fill="#504658"/>
</svg>
