<svg xmlns="http://www.w3.org/2000/svg" width="18" height="16" viewBox="0 0 18 16">
  <g id="Group_929" data-name="Group 929" transform="translate(0.012)">
    <circle id="Ellipse_47" data-name="Ellipse 47" cx="2" cy="2" r="2" transform="translate(-0.012)" fill="#e9e9e9"/>
    <circle id="Ellipse_47-2" data-name="Ellipse 47" cx="2" cy="2" r="2" transform="translate(6.988)" fill="#e9e9e9"/>
    <circle id="Ellipse_47-3" data-name="Ellipse 47" cx="2" cy="2" r="2" transform="translate(13.988)" fill="#e9e9e9"/>
    <circle id="Ellipse_47-4" data-name="Ellipse 47" cx="2" cy="2" r="2" transform="translate(-0.012 6)" fill="#e9e9e9"/>
    <circle id="Ellipse_47-5" data-name="Ellipse 47" cx="2" cy="2" r="2" transform="translate(6.988 6)" fill="#e9e9e9"/>
    <circle id="Ellipse_47-6" data-name="Ellipse 47" cx="2" cy="2" r="2" transform="translate(13.988 6)" fill="#e9e9e9"/>
    <circle id="Ellipse_47-7" data-name="Ellipse 47" cx="2" cy="2" r="2" transform="translate(-0.012 12)" fill="#e9e9e9"/>
    <circle id="Ellipse_47-8" data-name="Ellipse 47" cx="2" cy="2" r="2" transform="translate(6.988 12)" fill="#e9e9e9"/>
    <circle id="Ellipse_47-9" data-name="Ellipse 47" cx="2" cy="2" r="2" transform="translate(13.988 12)" fill="#e9e9e9"/>
  </g>
</svg>
