<svg xmlns="http://www.w3.org/2000/svg" width="61.857" height="61.857" viewBox="0 0 61.857 61.857">
  <g id="Group_1240" data-name="Group 1240" transform="translate(-24.574 -21.064)">
    <g id="noun_roles_2956746" transform="translate(24.574 21.064)">
      <path id="Path_2371" data-name="Path 2371" d="M57.655,50.993a5.155,5.155,0,1,0-6.815,0A8.253,8.253,0,0,0,46,58.5v3.093a1.031,1.031,0,0,0,1.031,1.031H61.464A1.031,1.031,0,0,0,62.5,61.588V58.5A8.253,8.253,0,0,0,57.655,50.993Zm-6.5-3.838a3.093,3.093,0,1,1,3.093,3.093A3.1,3.1,0,0,1,51.155,47.155Zm9.278,13.4H48.062V58.5a6.186,6.186,0,1,1,12.371,0Z" transform="translate(-0.638 -0.762)" fill="#5a4e63"/>
      <path id="Path_2372" data-name="Path 2372" d="M3.031,62.619H17.464A1.031,1.031,0,0,0,18.5,61.588V58.5a8.253,8.253,0,0,0-4.84-7.5,5.155,5.155,0,1,0-6.815,0A8.253,8.253,0,0,0,2,58.5v3.093A1.031,1.031,0,0,0,3.031,62.619ZM7.155,47.155a3.093,3.093,0,1,1,3.093,3.093A3.1,3.1,0,0,1,7.155,47.155ZM4.062,58.5a6.186,6.186,0,1,1,12.371,0v2.062H4.062Z" transform="translate(-2 -0.762)" fill="#5a4e63"/>
      <path id="Path_2373" data-name="Path 2373" d="M24,58.5v3.093a1.031,1.031,0,0,0,1.031,1.031H39.464A1.031,1.031,0,0,0,40.5,61.588V58.5a8.253,8.253,0,0,0-4.84-7.5,5.155,5.155,0,1,0-6.815,0A8.253,8.253,0,0,0,24,58.5Zm5.155-11.34a3.093,3.093,0,1,1,3.093,3.093A3.1,3.1,0,0,1,29.155,47.155Zm3.093,5.155A6.192,6.192,0,0,1,38.433,58.5v2.062H26.062V58.5A6.192,6.192,0,0,1,32.248,52.309Z" transform="translate(-1.319 -0.762)" fill="#5a4e63"/>
      <path id="Path_2374" data-name="Path 2374" d="M29.477,8a6.477,6.477,0,1,0,6.477,6.477A6.485,6.485,0,0,0,29.477,8Zm0,11.515a5.038,5.038,0,1,1,5.038-5.038A5.044,5.044,0,0,1,29.477,19.515Z" transform="translate(1.382 1.538)" fill="#5a4e63"/>
      <path id="Path_2375" data-name="Path 2375" d="M46.9,21.588a1.031,1.031,0,0,0,1.031-1.031V14.371A1.031,1.031,0,0,0,46.9,13.34l-1.7-.028a13.178,13.178,0,0,0-.808-1.939l1.2-1.2a1.03,1.03,0,0,0,0-1.458L41.213,4.343a1.03,1.03,0,0,0-1.458,0L38.532,5.527a12.9,12.9,0,0,0-1.944-.8v-1.7A1.031,1.031,0,0,0,35.557,2H29.371A1.031,1.031,0,0,0,28.34,3.031l-.027,1.7a13.033,13.033,0,0,0-1.94.808l-1.2-1.2a1.03,1.03,0,0,0-1.458,0L19.342,8.716a1.03,1.03,0,0,0,0,1.458L20.526,11.4a13.1,13.1,0,0,0-.8,1.943h-1.7A1.031,1.031,0,0,0,17,14.371v6.186a1.031,1.031,0,0,0,1.031,1.031l1.7.028a13.086,13.086,0,0,0,.808,1.939l-1.2,1.2a1.03,1.03,0,0,0,0,1.458l4.374,4.373a1.03,1.03,0,0,0,1.458,0L26.4,29.4a12.883,12.883,0,0,0,1.943.8v1.7a1.031,1.031,0,0,0,1.031,1.031h6.186A1.031,1.031,0,0,0,36.587,31.9l.027-1.7a12.976,12.976,0,0,0,1.939-.808l1.2,1.2a1.03,1.03,0,0,0,1.458,0l4.374-4.373a1.03,1.03,0,0,0,0-1.458L44.4,23.53a12.845,12.845,0,0,0,.8-1.942h1.7Zm-3.664-.61a11.377,11.377,0,0,1-.669,1.619,2.076,2.076,0,0,0,.365,2.417l.47.47L40.484,28.4l-.471-.47a2.071,2.071,0,0,0-2.418-.364,11.115,11.115,0,0,1-1.619.669A2.078,2.078,0,0,0,34.526,30.2v.666H30.4V30.2a2.076,2.076,0,0,0-1.453-1.966,11.346,11.346,0,0,1-1.617-.668,2.067,2.067,0,0,0-2.417.364l-.471.47L21.53,25.485l.47-.47a2.078,2.078,0,0,0,.364-2.418,11.315,11.315,0,0,1-.669-1.618,2.076,2.076,0,0,0-1.967-1.454h-.666V15.4h.666a2.077,2.077,0,0,0,1.967-1.452,11.427,11.427,0,0,1,.669-1.619A2.074,2.074,0,0,0,22,9.916l-.47-.47L24.445,6.53l.47.47a2.073,2.073,0,0,0,2.418.364,11.115,11.115,0,0,1,1.619-.669A2.078,2.078,0,0,0,30.4,4.728V4.062h4.124v.666a2.076,2.076,0,0,0,1.453,1.966,11.348,11.348,0,0,1,1.617.668A2.072,2.072,0,0,0,40.013,7l.47-.47L43.4,9.443l-.47.472a2.075,2.075,0,0,0-.365,2.417,11.191,11.191,0,0,1,.669,1.619A2.079,2.079,0,0,0,45.2,15.4h.666v4.124H45.2A2.077,2.077,0,0,0,43.233,20.978Z" transform="translate(-1.536 -2)" fill="#5a4e63"/>
    </g>
    <g id="Group_1241" data-name="Group 1241" transform="translate(33.351 38.032)">
      <line id="Line_55" data-name="Line 55" y2="7.021" transform="translate(22.234 16.383)" fill="none" stroke="#5a4e63" stroke-width="0.5" stroke-dasharray="1"/>
      <line id="Line_56" data-name="Line 56" y2="23.404" transform="translate(45.638)" fill="none" stroke="#5a4e63" stroke-width="0.5" stroke-dasharray="1"/>
      <line id="Line_57" data-name="Line 57" y2="23.404" fill="none" stroke="#5a4e63" stroke-width="0.5" stroke-dasharray="1"/>
      <line id="Line_58" data-name="Line 58" x1="4.681" transform="translate(38.617)" fill="none" stroke="#5a4e63" stroke-width="0.5" stroke-dasharray="1"/>
      <line id="Line_59" data-name="Line 59" x1="4.681" fill="none" stroke="#5a4e63" stroke-width="0.5" stroke-dasharray="1"/>
    </g>
  </g>
</svg>
