<svg xmlns="http://www.w3.org/2000/svg" width="19" height="19" viewBox="0 0 19 19">
  <g id="Group_2188" data-name="Group 2188" transform="translate(-627 -5181)">
    <circle id="Ellipse_170" data-name="Ellipse 170" cx="9.5" cy="9.5" r="9.5" transform="translate(627 5181)" fill="#ce2e6c"/>
    <g id="correct-symbol" transform="translate(630.498 5185.746)">
      <path id="Path_2142" data-name="Path 2142" d="M11.536,52.921,10.506,51.89a.732.732,0,0,0-1.031,0L4.5,56.87,2.274,54.634a.7.7,0,0,0-.515-.212.7.7,0,0,0-.515.212L.212,55.665a.732.732,0,0,0,0,1.031L2.956,59.44,3.987,60.47a.732.732,0,0,0,1.031,0L6.049,59.44l5.488-5.488a.732.732,0,0,0,0-1.031Z" transform="translate(0 -51.678)" fill="#fff"/>
    </g>
  </g>
</svg>
