<svg xmlns="http://www.w3.org/2000/svg" width="10.412" height="10" viewBox="0 0 10.412 10">
  <g id="arrow-up" transform="translate(0.706 0.5)">
    <path id="Path" d="M.5,9V0" transform="translate(4)" fill="none" stroke="#28c76f" stroke-linecap="round" stroke-linejoin="round" stroke-miterlimit="10" stroke-width="1"/>
    <path id="Path-2" data-name="Path" d="M0,5,4.5,0,9,5" fill="none" stroke="#28c76f" stroke-linecap="round" stroke-linejoin="round" stroke-miterlimit="10" stroke-width="1"/>
  </g>
</svg>
