<svg id="sad" xmlns="http://www.w3.org/2000/svg" width="31" height="31" viewBox="0 0 31 31">
  <circle id="Ellipse_345" data-name="Ellipse 345" cx="15.5" cy="15.5" r="15.5" fill="#ff5054"/>
  <g id="Group_2902" data-name="Group 2902" transform="translate(7.5 9.424)">
    <path id="Path_3144" data-name="Path 3144" d="M151.9,324.636a1,1,0,0,1-.708-.292,8.189,8.189,0,0,0-11.314,0,1,1,0,0,1-1.414-1.414,10,10,0,0,1,14.142,0,1,1,0,0,1,0,1.414A.988.988,0,0,1,151.9,324.636Z" transform="translate(-137.532 -310)" fill="#fff"/>
    <circle id="Ellipse_346" data-name="Ellipse 346" cx="2" cy="2" r="2" fill="#fff"/>
    <circle id="Ellipse_347" data-name="Ellipse 347" cx="2" cy="2" r="2" transform="translate(12)" fill="#fff"/>
  </g>
</svg>
