<svg xmlns="http://www.w3.org/2000/svg" width="22.515" height="18.051" viewBox="0 0 22.515 18.051">
  <g id="Group_937" data-name="Group 937" transform="translate(0)">
    <g id="Group_427" data-name="Group 427" transform="translate(17.898 10.324)">
      <g id="Group_426" data-name="Group 426" transform="translate(0 0)">
        <path id="Path_2080" data-name="Path 2080" d="M407.532,285.53a.531.531,0,1,0,.531.531A.531.531,0,0,0,407.532,285.53Z" transform="translate(-407.001 -285.53)" fill="#fff"/>
      </g>
    </g>
    <g id="Group_415" data-name="Group 415" transform="translate(0 0)">
      <g id="Group_414" data-name="Group 414">
        <path id="Path_2074" data-name="Path 2074" d="M16.371,50.758H1.268A1.269,1.269,0,0,0,0,52.026v9.061a1.269,1.269,0,0,0,1.268,1.268h.979v3.373a.531.531,0,0,0,.907.376L6.9,62.355h.752a.531.531,0,0,0,0-1.062s-1,0-1.008,0a.529.529,0,0,0-.34.154l-3,3s0-2.656,0-2.669a.531.531,0,0,0-.529-.484H1.268a.206.206,0,0,1-.206-.206V52.026a.206.206,0,0,1,.206-.206h15.1a.206.206,0,0,1,.206.206V55.5a.531.531,0,1,0,1.062,0V52.026A1.269,1.269,0,0,0,16.371,50.758Z" transform="translate(0 -50.758)" fill="#fff"/>
      </g>
    </g>
    <g id="Group_417" data-name="Group 417" transform="translate(9.407 6.497)">
      <g id="Group_416" data-name="Group 416" transform="translate(0 0)">
        <path id="Path_2075" data-name="Path 2075" d="M225.763,198.492H215.191a1.269,1.269,0,0,0-1.268,1.268v6.181a1.269,1.269,0,0,0,1.268,1.268h6.619l2.682,2.682a.531.531,0,0,0,.907-.376v-2.306h.365a1.269,1.269,0,0,0,1.268-1.268V199.76A1.269,1.269,0,0,0,225.763,198.492Zm.206,7.449a.206.206,0,0,1-.206.206h-.9a.531.531,0,0,0-.529.49c0,.012,0,1.6,0,1.6l-1.928-1.929-.006-.006-.022-.02a.529.529,0,0,0-.35-.132h-6.839a.206.206,0,0,1-.206-.206V199.76a.206.206,0,0,1,.206-.206h10.572a.206.206,0,0,1,.206.206Z" transform="translate(-213.923 -198.492)" fill="#fff"/>
      </g>
    </g>
    <g id="Group_419" data-name="Group 419" transform="translate(15.43 10.324)">
      <g id="Group_418" data-name="Group 418" transform="translate(0 0)">
        <path id="Path_2076" data-name="Path 2076" d="M351.417,285.53a.531.531,0,1,0,.531.531A.531.531,0,0,0,351.417,285.53Z" transform="translate(-350.886 -285.53)" fill="#fff"/>
      </g>
    </g>
    <g id="Group_421" data-name="Group 421" transform="translate(3.455 3.511)">
      <g id="Group_420" data-name="Group 420">
        <path id="Path_2077" data-name="Path 2077" d="M88.77,130.611H79.1a.531.531,0,1,0,0,1.062H88.77a.531.531,0,1,0,0-1.062Z" transform="translate(-78.572 -130.611)" fill="#fff"/>
      </g>
    </g>
    <g id="Group_423" data-name="Group 423" transform="translate(3.455 7.023)">
      <g id="Group_422" data-name="Group 422" transform="translate(0 0)">
        <path id="Path_2078" data-name="Path 2078" d="M82.772,210.465H79.1a.531.531,0,0,0,0,1.062h3.669a.531.531,0,0,0,0-1.062Z" transform="translate(-78.572 -210.465)" fill="#fff"/>
      </g>
    </g>
    <g id="Group_425" data-name="Group 425" transform="translate(12.962 10.324)">
      <g id="Group_424" data-name="Group 424" transform="translate(0 0)">
        <path id="Path_2079" data-name="Path 2079" d="M295.29,285.53a.531.531,0,1,0,.531.531A.531.531,0,0,0,295.29,285.53Z" transform="translate(-294.759 -285.53)" fill="#fff"/>
      </g>
    </g>
  </g>
</svg>
