<svg xmlns="http://www.w3.org/2000/svg" width="20" height="19" viewBox="0 0 20 19">
  <g id="Group_2384" data-name="Group 2384" transform="translate(-198 -2090)">
    <g id="Ellipse_238" data-name="Ellipse 238" transform="translate(198 2090)" fill="none" stroke="#3a3a3a" stroke-width="0.75">
      <circle cx="4" cy="4" r="4" stroke="none"/>
      <circle cx="4" cy="4" r="3.625" fill="none"/>
    </g>
    <g id="Ellipse_239" data-name="Ellipse 239" transform="translate(210 2090)" fill="none" stroke="#3a3a3a" stroke-width="0.75">
      <circle cx="4" cy="4" r="4" stroke="none"/>
      <circle cx="4" cy="4" r="3.625" fill="none"/>
    </g>
    <g id="Ellipse_241" data-name="Ellipse 241" transform="translate(198 2101)" fill="none" stroke="#3a3a3a" stroke-width="0.75">
      <circle cx="4" cy="4" r="4" stroke="none"/>
      <circle cx="4" cy="4" r="3.625" fill="none"/>
    </g>
    <circle id="Ellipse_242" data-name="Ellipse 242" cx="2" cy="2" r="2" transform="translate(212 2092)" fill="#3a3a3a"/>
    <g id="Group_2385" data-name="Group 2385" transform="translate(1)">
      <line id="Line_124" data-name="Line 124" y2="6" transform="translate(213.5 2102.5)" fill="none" stroke="#3a3a3a" stroke-linecap="round" stroke-width="1"/>
      <line id="Line_125" data-name="Line 125" y2="6" transform="translate(216.5 2105.5) rotate(90)" fill="none" stroke="#3a3a3a" stroke-linecap="round" stroke-width="1"/>
    </g>
  </g>
</svg>
