<svg xmlns="http://www.w3.org/2000/svg" width="21.307" height="19.99" viewBox="0 0 21.307 19.99">
  <g id="ranking" transform="translate(0.001 -15.815)">
    <g id="Group_461" data-name="Group 461" transform="translate(2.48 23.35)">
      <g id="Group_460" data-name="Group 460">
        <path id="Path_2146" data-name="Path 2146" d="M60.317,196.891a.168.168,0,0,0-.112.041l-.488.372a.232.232,0,0,0-.1.194.2.2,0,0,0,.174.215.15.15,0,0,0,.1-.037l.132-.132v2.209c0,.112.132.17.269.17s.269-.058.269-.17v-2.689C60.557,196.957,60.429,196.891,60.317,196.891Z" transform="translate(-59.614 -196.891)" fill="#3a3a3a"/>
      </g>
    </g>
    <g id="Group_463" data-name="Group 463" transform="translate(9.862 26.395)">
      <g id="Group_462" data-name="Group 462">
        <path id="Path_2147" data-name="Path 2147" d="M238.706,272.606h-1.15v-.1c0-.43,1.311-.72,1.311-1.613a.866.866,0,0,0-.927-.84.818.818,0,0,0-.889.761c0,.223.1.29.244.29.178,0,.281-.1.281-.2a.335.335,0,0,1,.368-.364.359.359,0,0,1,.385.368c0,.583-1.332.935-1.332,1.6v.4c0,.1.141.17.236.17h1.473c.091,0,.17-.116.17-.24S238.8,272.606,238.706,272.606Z" transform="translate(-236.998 -270.054)" fill="#3a3a3a"/>
      </g>
    </g>
    <g id="Group_465" data-name="Group 465" transform="translate(17.297 29.295)">
      <g id="Group_464" data-name="Group 464">
        <path id="Path_2148" data-name="Path 2148" d="M417.187,341.174a.725.725,0,0,0,.323-.687c0-.55-.372-.741-.873-.741-.7,0-.906.426-.906.72,0,.174.037.232.277.232.2,0,.256-.083.256-.207,0-.165.1-.277.368-.277a.317.317,0,0,1,.364.364c0,.356-.174.405-.381.405-.12,0-.161.108-.161.211s.041.211.161.211c.265,0,.455.087.455.393v.079c0,.314-.132.447-.443.447-.265,0-.43-.116-.43-.3,0-.132-.058-.19-.277-.19-.186,0-.256.046-.256.211,0,.335.273.753.951.753a.87.87,0,0,0,.993-.918V341.8A.617.617,0,0,0,417.187,341.174Z" transform="translate(-415.665 -339.747)" fill="#3a3a3a"/>
      </g>
    </g>
    <g id="Group_467" data-name="Group 467" transform="translate(-0.001 21.276)">
      <g id="Group_466" data-name="Group 466">
        <path id="Path_2149" data-name="Path 2149" d="M5.751,147.034H2.48a.321.321,0,0,0,0,.642H5.43v13.245H.641V147.355a.321.321,0,1,0-.642,0v13.887a.321.321,0,0,0,.321.321H5.751a.321.321,0,0,0,.321-.321V147.355A.321.321,0,0,0,5.751,147.034Z" transform="translate(0.001 -147.034)" fill="#3a3a3a"/>
      </g>
    </g>
    <g id="Group_469" data-name="Group 469" transform="translate(7.764 24.011)">
      <g id="Group_468" data-name="Group 468">
        <path id="Path_2150" data-name="Path 2150" d="M192.339,212.754h-3.479a.321.321,0,1,0,0,.642h3.158v10.51h-4.789V213.075a.321.321,0,0,0-.642,0v11.152a.321.321,0,0,0,.321.321h5.431a.321.321,0,0,0,.321-.321V213.075A.321.321,0,0,0,192.339,212.754Z" transform="translate(-186.587 -212.754)" fill="#3a3a3a"/>
      </g>
    </g>
    <g id="Group_471" data-name="Group 471" transform="translate(15.232 26.882)">
      <g id="Group_470" data-name="Group 470">
        <path id="Path_2151" data-name="Path 2151" d="M371.8,281.761h-5.431a.321.321,0,0,0-.321.321v8.281a.321.321,0,0,0,.321.321H371.8a.321.321,0,0,0,.321-.321v-8.281A.321.321,0,0,0,371.8,281.761Zm-.321,8.281h-4.789V282.4h4.789Z" transform="translate(-366.051 -281.761)" fill="#3a3a3a"/>
      </g>
    </g>
    <g id="Group_473" data-name="Group 473" transform="translate(3.102 15.815)">
      <g id="Group_472" data-name="Group 472">
        <path id="Path_2152" data-name="Path 2152" d="M89.728,21.524H82.581V16.136a.321.321,0,0,0-.321-.321H74.882a.321.321,0,0,0-.321.321v3.708a.321.321,0,1,0,.642,0V16.457h6.735v5.387a.321.321,0,0,0,.321.321h7.147V25.68a.321.321,0,1,0,.642,0V21.845A.321.321,0,0,0,89.728,21.524Z" transform="translate(-74.561 -15.815)" fill="#3a3a3a"/>
      </g>
    </g>
  </g>
</svg>
