<svg xmlns="http://www.w3.org/2000/svg" width="18.709" height="24.403" viewBox="0 0 18.709 24.403">
  <g id="document" transform="translate(-0.109 0)">
    <path id="Path_2172" data-name="Path 2172" d="M.109,57.309V78.458a.407.407,0,0,0,.407.407H15.971a.407.407,0,0,0,.407-.407V61.376c0-.009,0-.017-.005-.026a.384.384,0,0,0-.021-.1c0-.013-.008-.026-.013-.038a.4.4,0,0,0-.081-.119L12.19,57.022a.4.4,0,0,0-.12-.081l-.037-.013a.4.4,0,0,0-.105-.021c-.007,0-.015,0-.023,0H.516a.407.407,0,0,0-.407.407ZM14.99,60.97H12.311V58.291ZM.923,57.716H11.5v3.661a.407.407,0,0,0,.407.407h3.661V78.052H.923Zm0,0" transform="translate(0 -54.462)" fill="#3a3a3a"/>
    <path id="Path_2173" data-name="Path 2173" d="M71.65,21.149v.813h1.22a.407.407,0,0,0,.407-.407V.407A.407.407,0,0,0,72.87,0H57.415a.407.407,0,0,0-.407.407v1.22h.814V.813H72.463V21.149Zm0,0" transform="translate(-54.458)" fill="#3a3a3a"/>
    <path id="Path_2174" data-name="Path 2174" d="M75.977,189.668h9.761v.813H75.977Zm0,0" transform="translate(-72.613 -181.534)" fill="#3a3a3a"/>
    <path id="Path_2175" data-name="Path 2175" d="M75.977,132.766H79.23v.814H75.977Zm0,0" transform="translate(-72.613 -127.072)" fill="#3a3a3a"/>
    <path id="Path_2176" data-name="Path 2176" d="M75.977,246.566h6.508v.814H75.977Zm0,0" transform="translate(-72.613 -235.991)" fill="#3a3a3a"/>
    <path id="Path_2177" data-name="Path 2177" d="M246.676,246.566h2.44v.814h-2.44Zm0,0" transform="translate(-235.992 -235.991)" fill="#3a3a3a"/>
    <path id="Path_2178" data-name="Path 2178" d="M75.977,303.465h9.761v.814H75.977Zm0,0" transform="translate(-72.613 -290.45)" fill="#3a3a3a"/>
    <path id="Path_2179" data-name="Path 2179" d="M75.977,417.266h9.761v.814H75.977Zm0,0" transform="translate(-72.613 -399.37)" fill="#3a3a3a"/>
    <path id="Path_2180" data-name="Path 2180" d="M161.324,360.367h6.1v.813h-6.1Zm0,0" transform="translate(-154.301 -344.912)" fill="#3a3a3a"/>
    <path id="Path_2181" data-name="Path 2181" d="M75.977,360.367h2.847v.813H75.977Zm0,0" transform="translate(-72.613 -344.912)" fill="#3a3a3a"/>
    <path id="Path_2182" data-name="Path 2182" d="M75.977,474.168H77.6v.813H75.977Zm0,0" transform="translate(-72.613 -453.832)" fill="#3a3a3a"/>
    <path id="Path_2183" data-name="Path 2183" d="M132.875,474.168H140.2v.813h-7.321Zm0,0" transform="translate(-127.072 -453.832)" fill="#3a3a3a"/>
  </g>
</svg>
