<svg xmlns="http://www.w3.org/2000/svg" width="17" height="17" viewBox="0 0 17 17">
  <g id="Group_1584" data-name="Group 1584" transform="translate(0 0.046)">
    <g id="Group_1577" data-name="Group 1577" transform="translate(0 -0.046)">
      <circle id="Ellipse_48" data-name="Ellipse 48" cx="8.5" cy="8.5" r="8.5" transform="translate(0 0)" fill="#ffcf46"/>
    </g>
    <g id="warning-sign" transform="translate(7.389 4.916)">
      <path id="Path_2358" data-name="Path 2358" d="M185.208,6.315a.584.584,0,0,0,.582-.535l.395-4.717a.981.981,0,1,0-1.954,0l.395,4.717A.584.584,0,0,0,185.208,6.315Z" transform="translate(-184.227)" fill="#fff"/>
      <path id="Path_2359" data-name="Path 2359" d="M206.089,410.908a.636.636,0,1,0,.636.636A.636.636,0,0,0,206.089,410.908Z" transform="translate(-205.109 -404.246)" fill="#fff"/>
    </g>
  </g>
</svg>
