<svg xmlns="http://www.w3.org/2000/svg" width="27.107" height="27.107" viewBox="0 0 27.107 27.107">
  <g id="smily1" transform="translate(0.5 0.5)">
    <g id="Group_2261" data-name="Group 2261" transform="translate(0 0)">
      <g id="Group_2003" data-name="Group 2003" transform="translate(0 0)">
        <path id="Path_2513" data-name="Path 2513" d="M270.722,424a13.054,13.054,0,1,1-13.054-13.054A13.054,13.054,0,0,1,270.722,424Z" transform="translate(-244.615 -410.948)" fill="#c5c5c5" stroke="#c5c5c5" stroke-width="1"/>
      </g>
      <g id="Group_2001" data-name="Group 2001" transform="translate(6.194 7.918)">
        <path id="Path_2510" data-name="Path 2510" d="M447.012,454.087l3.2,1.816-3.177,1.8" transform="translate(-447.012 -454.087)" fill="none" stroke="#403408" stroke-linecap="round" stroke-linejoin="round" stroke-width="2"/>
        <path id="Path_2511" data-name="Path 2511" d="M507.413,457.7l-3.128-1.817,3.1-1.8" transform="translate(-493.187 -454.087)" fill="none" stroke="#403408" stroke-linecap="round" stroke-linejoin="round" stroke-width="2"/>
      </g>
      <path id="Path_2512" data-name="Path 2512" d="M459.054,492.268a5.047,5.047,0,0,1,4.8-3.536,4.958,4.958,0,0,1,4.758,3.509" transform="translate(-450.526 -474.101)" fill="none" stroke="#403408" stroke-linecap="round" stroke-miterlimit="10" stroke-width="2"/>
    </g>
  </g>
</svg>
