<svg id="Group_2271" data-name="Group 2271" xmlns="http://www.w3.org/2000/svg" width="26.107" height="26.107" viewBox="0 0 26.107 26.107">
  <g id="Group_2263" data-name="Group 2263" transform="translate(0 0)">
    <g id="Group_2006" data-name="Group 2006" transform="translate(0 0)">
      <path id="Path_2517" data-name="Path 2517" d="M441,603.558a13.053,13.053,0,1,1-13.053-13.053A13.054,13.054,0,0,1,441,603.558Z" transform="translate(-414.889 -590.505)" fill="#ffd21f"/>
    </g>
    <g id="Group_2007" data-name="Group 2007" transform="translate(5.025 8.927)">
      <path id="Path_2518" data-name="Path 2518" d="M.948,4.172h0A.951.951,0,0,1,0,3.224V.948A.951.951,0,0,1,.948,0h0A.951.951,0,0,1,1.9.948V3.224A.951.951,0,0,1,.948,4.172Z" transform="translate(4.172 0) rotate(90)" fill="#403408"/>
      <path id="Path_2519" data-name="Path 2519" d="M.948,4.172h0A.951.951,0,0,1,0,3.224V.948A.951.951,0,0,1,.948,0h0A.951.951,0,0,1,1.9.948V3.224A.951.951,0,0,1,.948,4.172Z" transform="translate(16.056) rotate(90)" fill="#403408"/>
    </g>
    <line id="Line_83" data-name="Line 83" x2="14.95" transform="translate(5.579 16.783)" fill="none" stroke="#403408" stroke-linecap="round" stroke-miterlimit="10" stroke-width="2"/>
  </g>
</svg>
