<svg xmlns="http://www.w3.org/2000/svg" width="13.58" height="13.58" viewBox="0 0 13.58 13.58">
  <g id="Layer_2" data-name="Layer 2" transform="translate(0.5 0.703)">
    <g id="Layer_1" data-name="Layer 1" transform="translate(0 0)">
      <path id="Path_2109" data-name="Path 2109" d="M12.523,3.829v8.487a.707.707,0,0,1-.707.707H1.207A.707.707,0,0,1,.5,12.316V1.707A.707.707,0,0,1,1.207,1H9.694" transform="translate(-0.5 -0.646)" fill="none" stroke="#656565" stroke-linecap="round" stroke-miterlimit="10" stroke-width="1"/>
      <path id="Path_2110" data-name="Path 2110" d="M6,4.744,8.546,7.29a.347.347,0,0,0,.53,0L14.487.5" transform="translate(-2.11 -0.5)" fill="none" stroke="#656565" stroke-linecap="round" stroke-miterlimit="10" stroke-width="1"/>
    </g>
  </g>
</svg>
