<svg id="card" xmlns="http://www.w3.org/2000/svg" width="27.764" height="18.637" viewBox="0 0 27.764 18.637">
  <path id="Path_2156" data-name="Path 2156" d="M25.364,0H2.4A2.4,2.4,0,0,0,0,2.4V16.238a2.4,2.4,0,0,0,2.4,2.4H25.364a2.4,2.4,0,0,0,2.4-2.4V2.4a2.4,2.4,0,0,0-2.4-2.4Zm1.575,16.238a1.577,1.577,0,0,1-1.575,1.575H2.4A1.577,1.577,0,0,1,.825,16.238V2.4A1.577,1.577,0,0,1,2.4.825H25.364A1.577,1.577,0,0,1,26.939,2.4Zm0,0" fill="#686868"/>
  <path id="Path_2157" data-name="Path 2157" d="M53.576,60.832H44.01a.412.412,0,0,0-.412.412v.989a.412.412,0,0,0,.825,0v-.577h8.741V71.717H44.422V63.883a.412.412,0,0,0-.825,0v8.247a.412.412,0,0,0,.412.412h9.566a.412.412,0,0,0,.412-.412V61.244a.412.412,0,0,0-.412-.412Zm0,0" transform="translate(-41.233 -57.533)" fill="#686868"/>
  <path id="Path_2158" data-name="Path 2158" d="M275.37,78.465H265.034a.412.412,0,1,0,0,.825H275.37a.412.412,0,0,0,0-.825Zm0,0" transform="translate(-250.272 -74.21)" fill="#686868"/>
  <path id="Path_2159" data-name="Path 2159" d="M415.37,133.625h-2.309a.412.412,0,0,0,0,.825h2.309a.412.412,0,0,0,0-.825Zm0,0" transform="translate(-390.272 -126.379)" fill="#686868"/>
  <path id="Path_2160" data-name="Path 2160" d="M265.034,134.45h6.377a.412.412,0,1,0,0-.825h-6.377a.412.412,0,1,0,0,.825Zm0,0" transform="translate(-250.272 -126.379)" fill="#686868"/>
  <path id="Path_2161" data-name="Path 2161" d="M275.37,188.785H265.034a.412.412,0,1,0,0,.825H275.37a.412.412,0,0,0,0-.825Zm0,0" transform="translate(-250.272 -178.548)" fill="#686868"/>
  <path id="Path_2162" data-name="Path 2162" d="M270.642,243.945h-5.608a.412.412,0,1,0,0,.825h5.608a.412.412,0,0,0,0-.825Zm0,0" transform="translate(-250.272 -230.717)" fill="#686868"/>
  <path id="Path_2163" data-name="Path 2163" d="M86.18,108.206a.412.412,0,0,0,.825,0,2.062,2.062,0,1,1,4.123,0,.412.412,0,0,0,.825,0,2.887,2.887,0,0,0-1.4-2.474,2.886,2.886,0,1,0-2.97,0,2.887,2.887,0,0,0-1.4,2.474ZM87,103.258a2.062,2.062,0,1,1,2.062,2.062A2.064,2.064,0,0,1,87,103.258Zm0,0" transform="translate(-81.506 -94.929)" fill="#686868"/>
</svg>
